<?xml version="1.0" encoding="iso-8859-1"?>
<!-- Generator: Adobe Illustrator 21.0.0, SVG Export Plug-In . SVG Version: 6.00 Build 0)  -->
<svg version="1.1" id="Capa_1" xmlns="http://www.w3.org/2000/svg" xmlns:xlink="http://www.w3.org/1999/xlink" x="0px" y="0px"
	 viewBox="0 0 300 300" style="enable-background:new 0 0 300 300;" xml:space="preserve">
<g>
	<path style="fill:#008FD0;" d="M205.029,104.154c-5.619,0-11.055,0.823-16.173,2.376V54.173h-44.225L147.921,38H79.392L82.5,54.173
		H38V261.68h150.856v-46.601c5.117,1.555,10.554,2.376,16.173,2.376c31.432,0,56.651-25.721,56.651-56.65
		C261.68,129.83,236.461,104.154,205.029,104.154L205.029,104.154z M136.5,47.503l-4.751,22.843H95.565l-4.295-22.843H136.5z
		 M179.4,252.177H47.503V63.721h36.868l3.108,16.173h51.854l3.288-16.173h36.687v46.646c-12.472,6.398-22.25,17.315-27.275,30.472
		H60.386v9.459h88.997c-0.638,3.38-1.004,6.897-1.004,10.462c0,6.121,1.004,12.059,2.831,17.59H60.386v9.5h95.029
		c5.481,9.961,13.842,18.139,23.985,23.301V252.177z M205.029,207.405c-26.178,0-47.103-21.427-47.103-47.103
		s21.427-47.103,47.103-47.103c26.178,0,47.103,21.426,47.103,47.103S231.207,207.405,205.029,207.405L205.029,207.405z
		 M205.029,207.405"/>
	<rect x="60.386" y="103.696" style="fill:#008FD0;" width="106.587" height="9.503"/>
	<rect x="60.386" y="215.536" style="fill:#008FD0;" width="106.587" height="9.503"/>
	<path style="fill:#008FD0;" d="M229.106,143.17l-6.717-6.762l-17.177,17.177l-17.179-17.177l-6.715,6.762l17.177,17.132
		l-17.498,17.498l6.717,6.762l17.498-17.498l17.498,17.498l6.715-6.762l-17.498-17.498L229.106,143.17z M229.106,143.17"/>
</g>
</svg>
